C:\Softdev\MainProgram\src\main\java\com\gog\mainprogram\MainProgram.java
C:\Softdev\MainProgram\src\main\java\com\gog\mainprogram\Game.java
C:\Softdev\MainProgram\src\main\java\com\gog\mainprogram\Table.java
C:\Softdev\MainProgram\src\main\java\com\gog\mainprogram\Player.java
